{
  "languages": [
    "Bash",
    "Java",
    "JavaScript",
    "Python"
  ],
  "database": [
    "MongoDB"
  ],
  "framworks": [
    "Flask",
    "React",
    "Snort3"
  ],
  "tools": [
    "Git",
    "Selenium",
    "OWASP Zap",
    "Postman"
  ]
}